{
  "annotations": {
    "list": [
      {
        "builtIn": 1,
        "datasource": {
          "type": "grafana",
          "uid": "-- Grafana --"
        },
        "enable": true,
        "hide": true,
        "iconColor": "rgba(0, 211, 255, 1)",
        "name": "Annotations & Alerts",
        "type": "dashboard"
      }
    ]
  },
  "editable": true,
  "fiscalYearStartMonth": 0,
  "graphTooltip": 0,
  "id": 1,
  "links": [],
  "liveNow": false,
  "panels": [
    {
      "datasource": {
        "type": "grafana",
        "uid": "grafana"
      },
      "gridPos": {
        "h": 8,
        "w": 12,
        "x": 0,
        "y": 0
      },
      "id": 1,
      "options": {
        "seriesCountSize": "sm",
        "showSeriesCount": false,
        "text": "Default value of text input option"
      },
      "targets": [
        {
          "datasource": {
            "type": "datasource",
            "uid": "grafana"
          },
          "queryType": "randomWalk",
          "refId": "A"
        }
      ],
      "title": "Panel Title",
      "type": "noirlab-ted-panel"
    },
    {
      "datasource": {
        "type": "grafana-testdata-datasource",
        "uid": "trlxrdZVk"
      },
      "gridPos": {
        "h": 8,
        "w": 12,
        "x": 12,
        "y": 0
      },
      "id": 2,
      "options": {
        "seriesCountSize": "sm",
        "showSeriesCount": false,
        "text": "Default value of text input option"
      },
      "targets": [
        {
          "alias": "",
          "datasource": {
            "type": "grafana-testdata-datasource",
            "uid": "db84e60d-b92a-4089-82cb-34842fb1754b"
          },
          "refId": "A",
          "scenarioId": "no_data_points"
        }
      ],
      "title": "Panel Title",
      "type": "noirlab-ted-panel"
    }
  ],
  "refresh": "",
  "schemaVersion": 39,
  "tags": [],
  "templating": {
    "list": []
  },
  "time": {
    "from": "now-6h",
    "to": "now"
  },
  "timepicker": {},
  "timezone": "",
  "title": "Provisioned ted dashboard",
  "uid": "a538aeff-5a8a-42a5-901c-938d896fdd6f",
  "version": 1,
  "weekStart": ""
}